{
    "page": 1,
    "totalPages": 3,
    "totalResults": 41,
    "results": [
        {
            "id": 5663987,
            "name": "Frosty",
            "popularity": 0,
            "adult": false,
            "mediaType": "person",
            "profilePath": null,
            "knownFor": []
        },
        {
            "id": 605521,
            "mediaType": "movie",
            "adult": false,
            "genreIds": [
                99
            ],
            "originalLanguage": "en",
            "originalTitle": "Frosty",
            "overview": "",
            "popularity": 0.0125,
            "releaseDate": "",
            "title": "Frosty",
            "video": false,
            "voteAverage": 0,
            "voteCount": 0,
            "backdropPath": "/k9TZgaLoTfdN6nrivajxNQN92jL.jpg",
            "posterPath": null
        },
        {
            "id": 13675,
            "mediaType": "movie",
            "adult": false,
            "genreIds": [
                10751,
                16,
                10770
            ],
            "originalLanguage": "en",
            "originalTitle": "Frosty the Snowman",
            "overview": "Schulkinder bauen aus dem ersten Schnee des Jahres, der einen Tag vor Weihnachten fiel, einen Schneemann. Als der Wind den Zylinder eines schlechten Zauberers auf den Kopf des Schneemannes weht, erwacht dieser zum Leben. Aber weil Frosty, wie er von den Kindern liebevoll genannt wird, bei den Temperaturen schnell droht zu schmilzen, hilft ein kleines Mädchen ihm dabei zum Nordpol zu kommen. Das wäre alles viel leichter, wäre nicht der böse Zauberer hinter ihnen her, den er um jeden Preis seinen Zylinder zurück haben möchte...",
            "popularity": 1.479,
            "releaseDate": "1969-12-07",
            "title": "Frosty, der Schneemann",
            "video": false,
            "voteAverage": 6.921,
            "voteCount": 375,
            "backdropPath": "/69HEmEIgFCo6Te8ShHcFB1ERPeF.jpg",
            "posterPath": "/6xtOfaaSLkAM0mZtjHnNHvfm4ji.jpg"
        },
        {
            "id": 376244,
            "mediaType": "movie",
            "adult": false,
            "genreIds": [
                12,
                35,
                10749,
                10770
            ],
            "originalLanguage": "en",
            "originalTitle": "A Frosty Affair",
            "overview": "",
            "popularity": 0.6185,
            "releaseDate": "2015-10-03",
            "title": "A Frosty Affair",
            "video": false,
            "voteAverage": 5.6,
            "voteCount": 28,
            "backdropPath": "/vBSLlsShxtIwC3zQfymWUrarm6k.jpg",
            "posterPath": "/ArlNMipfH89GrpQ6Ifjy74hPHid.jpg"
        },
        {
            "id": 28042,
            "mediaType": "movie",
            "adult": false,
            "genreIds": [
                16,
                10751,
                10770
            ],
            "originalLanguage": "en",
            "originalTitle": "Frosty Returns",
            "overview": "",
            "popularity": 1.5216,
            "releaseDate": "1993-09-15",
            "title": "Frosty Returns",
            "video": false,
            "voteAverage": 5.6,
            "voteCount": 110,
            "backdropPath": "/tQBVmuHhIycRg1BJaEZrBp9M9gM.jpg",
            "posterPath": "/qYgHxkiRvjVnPihSAm9Je91kOZq.jpg"
        },
        {
            "id": 1290287,
            "mediaType": "movie",
            "adult": false,
            "genreIds": [
                10749,
                35
            ],
            "originalLanguage": "en",
            "originalTitle": "Hot Frosty",
            "overview": "Der Zauberschal einer jungen Witwe erweckt einen attraktiven Schneemann zum Leben. Kann sie Romantik, Freude und Weihnachtsstimmung wieder erleben, bevor er schmilzt?",
            "popularity": 4.534,
            "releaseDate": "2024-11-12",
            "title": "Hot Frosty",
            "video": false,
            "voteAverage": 5.9,
            "voteCount": 284,
            "backdropPath": "/6neVLKBU4DaWAwpWFhfCpV6yuqN.jpg",
            "posterPath": "/waW6R5WJQSxq65gwBkvnKlseU6n.jpg"
        },
        {
            "id": 811097,
            "mediaType": "movie",
            "adult": false,
            "genreIds": [
                35,
                12
            ],
            "originalLanguage": "en",
            "originalTitle": "Frosty Man and the BMX Kid",
            "overview": "",
            "popularity": 0.1356,
            "releaseDate": "2010-02-21",
            "title": "Frosty Man and the BMX Kid",
            "video": false,
            "voteAverage": 8,
            "voteCount": 1,
            "backdropPath": "/cXxiozPWSGzbxoY3bx71dkH70W.jpg",
            "posterPath": "/8tNW3y3tcPEhWqrnzOnbnO8CzrN.jpg"
        },
        {
            "id": 27933,
            "mediaType": "movie",
            "adult": false,
            "genreIds": [
                16,
                10751,
                35
            ],
            "originalLanguage": "en",
            "originalTitle": "The Legend of Frosty the Snowman",
            "overview": "",
            "popularity": 0.5906,
            "releaseDate": "2005-10-18",
            "title": "The Legend of Frosty the Snowman",
            "video": false,
            "voteAverage": 5.355,
            "voteCount": 31,
            "backdropPath": "/jgfqJcX6fh2GQ2nHOOqmJGwv30F.jpg",
            "posterPath": "/cBlIsdS68NrJJLYcRCbMKhI0aPe.jpg"
        },
        {
            "id": 26539,
            "mediaType": "movie",
            "adult": false,
            "genreIds": [
                16,
                10751,
                10770
            ],
            "originalLanguage": "en",
            "originalTitle": "Frostys Winter Wonderland",
            "overview": "",
            "popularity": 0.6272,
            "releaseDate": "1976-12-02",
            "title": "Frostys Winter Wonderland",
            "video": false,
            "voteAverage": 6.554,
            "voteCount": 84,
            "backdropPath": "/eFL6glfGf0GPGRQ712f1rPNniDV.jpg",
            "posterPath": "/o915rkZ0wwQjrk0UAEQkEkmt1E1.jpg"
        },
        {
            "id": 120603,
            "name": "Erin Frosty",
            "popularity": 0.0847,
            "adult": false,
            "mediaType": "person",
            "profilePath": null,
            "knownFor": [
                {
                    "id": 38509,
                    "mediaType": "movie",
                    "adult": false,
                    "genreIds": [
                        35,
                        18
                    ],
                    "originalLanguage": "en",
                    "originalTitle": "Polish Wedding",
                    "overview": "",
                    "popularity": 0.9592,
                    "releaseDate": "1998-01-16",
                    "title": "Gestern war ich noch Jungfrau",
                    "video": false,
                    "voteAverage": 5,
                    "voteCount": 44,
                    "backdropPath": "/jw3090ZOcyegQCeHWdFkDsPIaRh.jpg",
                    "posterPath": "/36De1BxBBzXyJ1eYVQlIoTUIwQm.jpg"
                }
            ]
        },
        {
            "id": 925886,
            "mediaType": "movie",
            "adult": false,
            "genreIds": [
                37
            ],
            "originalLanguage": "en",
            "originalTitle": "The Conversion of Frosty Blake",
            "overview": "",
            "popularity": 0.1953,
            "releaseDate": "1915-06-02",
            "title": "The Conversion of Frosty Blake",
            "video": false,
            "voteAverage": 0,
            "voteCount": 0,
            "backdropPath": "/wV4xW6Gq0KUpCFxqpAu8OCtE8pS.jpg",
            "posterPath": "/4MqgcBTGSO0OEV46PmaHFpQp5WZ.jpg"
        },
        {
            "id": 40246,
            "mediaType": "movie",
            "adult": false,
            "genreIds": [
                16,
                14,
                10751,
                10770
            ],
            "originalLanguage": "en",
            "originalTitle": "Rudolph and Frostys Christmas in July",
            "overview": "",
            "popularity": 0.7995,
            "releaseDate": "1979-07-01",
            "title": "Rudolph and Frostys Christmas in July",
            "video": false,
            "voteAverage": 6.4,
            "voteCount": 75,
            "backdropPath": "/9bBUH5OfA19jri8YOpXTty1dB0v.jpg",
            "posterPath": "/v24SYZqlfvzvjyQpt6MtQLQNJ0u.jpg"
        },
        {
            "id": 1414554,
            "name": "Craig Frosty Silva",
            "popularity": 0.4728,
            "adult": false,
            "mediaType": "person",
            "profilePath": null,
            "knownFor": [
                {
                    "id": 18785,
                    "mediaType": "movie",
                    "adult": false,
                    "genreIds": [
                        35
                    ],
                    "originalLanguage": "en",
                    "originalTitle": "The Hangover",
                    "overview": "Sie planten eine Vegas-Junggesellen-Party, die sie nie vergessen würden. Jetzt müssen sie unbedingt herausfinden, was genau schiefgelaufen ist. Wem gehört das Baby im Schrank der Caesars-Palace-Suite? Wie kommt der Tiger ins Badezimmer? Warum fehlt einem der Jungs ein Zahn? Und vor allem, wo ist der Bräutigam? Was die Jungs beim „Draufmachen“ so erleben, ist nichts im Vergleich zu den Kapriolen, die sie nüchtern veranstalten müssen. Sie sind gezwungen, all die schlimmen Entscheidungen der letzten Nacht zu rekonstruieren – eine nach der anderen.",
                    "popularity": 12.8828,
                    "releaseDate": "2009-06-02",
                    "title": "Hangover",
                    "video": false,
                    "voteAverage": 7.329,
                    "voteCount": 17813,
                    "backdropPath": "/iuRVt8tFiXDPGgzavhuSa3QHRxD.jpg",
                    "posterPath": "/cwoVDVzJuGAD3OAji9OkHENrUB0.jpg"
                },
                {
                    "id": 119450,
                    "mediaType": "movie",
                    "adult": false,
                    "genreIds": [
                        878,
                        28,
                        18,
                        53
                    ],
                    "originalLanguage": "en",
                    "originalTitle": "Dawn of the Planet of the Apes",
                    "overview": "Nachdem durch die randalierenden und genetisch veränderten Affen und den ausgebrochenen Virus die Weltbevölkerung drastisch reduziert wurde, versuchen einige wenige Überlebende ihr Dasein in San Francisco zu fristen. Aber auch bei den Affen ergeben sich Probleme. Der Anführer Caesar muss seine Machtposition in den eigenen Rängen behaupten. Mittlerweile hat er selbst eine Frau und ein Baby. Seinen Artgenossen hat er mittlerweile beigebracht, sich mithilfe einer Zeichenspracheuntereinander zu verständigen. Alles deutet darauf hin, dass der Waffenstillstand zwischen Affen und den überlebenden Menschen nicht von Dauer sein wird. Bald schon wird sich entscheiden, welche der beiden Spezies die Erde in Zukunft dominieren wird.",
                    "popularity": 11.5862,
                    "releaseDate": "2014-07-08",
                    "title": "Planet der Affen - Revolution",
                    "video": false,
                    "voteAverage": 7.336,
                    "voteCount": 12033,
                    "backdropPath": "/3SozaNPOYUadcmTPgndDibMyDNC.jpg",
                    "posterPath": "/f8e7mtltqN351KeFjOgefnhXER3.jpg"
                },
                {
                    "id": 58574,
                    "mediaType": "movie",
                    "adult": false,
                    "genreIds": [
                        12,
                        28,
                        80,
                        9648
                    ],
                    "originalLanguage": "en",
                    "originalTitle": "Sherlock Holmes: A Game of Shadows",
                    "overview": "Bei Spiel im Schatten trifft der britische Meisterdetektiv Sherlock Holmes auf seinen Erzfeind Dr. Moriarty. Er ist das kriminelle Genie in der Londoner Unterwelt, ein ebenbürtiger Bösewicht und Widersacher für Sherlock Holmes. Nur selten tritt er selbst in Erscheinung, meist zieht er im Hintergrund die Fäden. So auch, als der österreichische Kronprinz eines Tages tot aufgefunden wird und alles auf einen Selbstmord hindeutet. Nur Sherlock Holmes vermutet ein Verbrechen, das allerdings nur die Spitze einer weitverzweigten Verschwörung ist. Dieser Verdacht bestätigt sich, als auch die Zigeunerin Sim, die einzige Zeugin des Mordes, nur knapp einem Anschlag entgehen kann. Mit ihrer Hilfe reisen Sherlock Holmes und Doktor Watson durch halb Europa, um die Pläne Moriartys, der den Lauf der Geschichte verändern will, zu durchkreuzen.",
                    "popularity": 6.2066,
                    "releaseDate": "2011-11-22",
                    "title": "Sherlock Holmes - Spiel im Schatten",
                    "video": false,
                    "voteAverage": 7.142,
                    "voteCount": 10788,
                    "backdropPath": "/e3Myaqo4krqeeh4UkssAEISjIgh.jpg",
                    "posterPath": "/tJCxd1ITVvX0htQ5dBDR7uokm1O.jpg"
                }
            ]
        },
        {
            "id": 143204,
            "mediaType": "movie",
            "adult": false,
            "genreIds": [
                16,
                10751,
                10402
            ],
            "originalLanguage": "en",
            "originalTitle": "Frosty the Snowman",
            "overview": "",
            "popularity": 0.3372,
            "releaseDate": "1951-12-23",
            "title": "Frosty the Snowman",
            "video": false,
            "voteAverage": 5.6,
            "voteCount": 7,
            "backdropPath": "/fInroKvZOgyt4sPFJCGzaEJPdw0.jpg",
            "posterPath": "/6kXLqGk5kju688vv5S6uZdmb08w.jpg"
        },
        {
            "id": 16486,
            "mediaType": "movie",
            "adult": false,
            "genreIds": [
                16,
                35,
                53
            ],
            "originalLanguage": "en",
            "originalTitle": "The Spirit of Christmas: Jesus vs. Frosty",
            "overview": "",
            "popularity": 0.7132,
            "releaseDate": "1992-12-01",
            "title": "The Spirit of Christmas: Jesus vs. Frosty",
            "video": false,
            "voteAverage": 6.055,
            "voteCount": 64,
            "backdropPath": "/14syr9pVRXpQJft4EEsXprLUMAB.jpg",
            "posterPath": "/5NpBk74KE57HWcmXmdc0A4QG8GS.jpg"
        },
        {
            "id": 1300131,
            "name": "Frosty Royce",
            "popularity": 2.5174,
            "adult": false,
            "mediaType": "person",
            "profilePath": null,
            "knownFor": [
                {
                    "id": 967,
                    "mediaType": "movie",
                    "adult": false,
                    "genreIds": [
                        36,
                        10752,
                        18,
                        12
                    ],
                    "originalLanguage": "en",
                    "originalTitle": "Spartacus",
                    "overview": "Die Gladiatoren von Capua kämpfen in der Arena auf Leben und Tod zur reinen Belustigung der römischen Herrscher. Die Exekutierung eines der Sklaven durch Prätor Crassus ist für den unerschrockenen Gladiator Spartacus das Zeichen zur Rebellion. Er fasst den wahnwitzigen Entschluss, mit der ihn liebenden Sklavin Varinia  und den Sklaven des Landes in ihre Heimatländer zurückzukehren. Spartacus formiert ein ganzes Heer, um in die Freiheit zu ziehen. Aber der machthungrige Crassus, der das Römische Imperium bedroht sieht, schickt seine Legionen gegen den Rebellen und seine Armee aus. Eine blutige Schlacht beginnt.",
                    "popularity": 5.7202,
                    "releaseDate": "1960-10-13",
                    "title": "Spartacus",
                    "video": false,
                    "voteAverage": 7.536,
                    "voteCount": 2322,
                    "backdropPath": "/9caD0fGCrp96JTFFeGyI0CGNj7.jpg",
                    "posterPath": "/lCtMmNvW4VYIohi7UuVM30rl3xN.jpg"
                },
                {
                    "id": 18264,
                    "mediaType": "movie",
                    "adult": false,
                    "genreIds": [
                        18,
                        37
                    ],
                    "originalLanguage": "en",
                    "originalTitle": "The Man from Laramie",
                    "overview": "Will Lockhart, beurlaubter Captain der Armee aus Laramie, will seinen ermordeten Bruder rächen. Verbrecherische Profitjäger hatten den Indianern geschmuggelte Schnellfeuerwaffen verkauft, und seinen Bruder kostete dieser frevelhafte Handel das Leben.",
                    "popularity": 0.9434,
                    "releaseDate": "1955-08-19",
                    "title": "Der Mann aus Laramie",
                    "video": false,
                    "voteAverage": 7.2,
                    "voteCount": 250,
                    "backdropPath": "/vN604vmU4V3fps7lRFJe2y94M5g.jpg",
                    "posterPath": "/tEw4qHBUyZ1e0tgaGUcAz8F9zoq.jpg"
                },
                {
                    "id": 28484,
                    "mediaType": "movie",
                    "adult": false,
                    "genreIds": [
                        37,
                        80,
                        10749
                    ],
                    "originalLanguage": "en",
                    "originalTitle": "Colorado Territory",
                    "overview": "Der gesuchte Verbrecher Wes MCQueen wird von seinem alternden Bandenchef aus dem Gefängnis befreit, um im Gegenzug einen Eisenbahn-Überfall zu organisieren. Doch Wes verliebt sich in die schöne Farmerstocher Julie Ann, die ihn aber für Kopfgeld zu verraten plant. Und auch seine Bandenfreunde wollen ihn los werden. Zusammen mit der Halbindianerin Colorado, die Wes ihre Liebe gesteht, bleibt ihm nur noch die Flucht. Schaffen es die beiden über die mexikanische Grenze?",
                    "popularity": 1.1331,
                    "releaseDate": "1949-06-11",
                    "title": "Vogelfrei",
                    "video": false,
                    "voteAverage": 7,
                    "voteCount": 72,
                    "backdropPath": "/geizp94zUS43Q0h7kO0ZlUQI3Mn.jpg",
                    "posterPath": "/zhIWekWTKP5R6qHoXnW6ln0YLDc.jpg"
                }
            ]
        },
        {
            "id": 118395,
            "name": "Frosty Lawson",
            "popularity": 0.6025,
            "adult": false,
            "mediaType": "person",
            "profilePath": "/1i5LzEjrqMq8d25YmwWmy7OQyuR.jpg",
            "knownFor": [
                {
                    "id": 27576,
                    "mediaType": "movie",
                    "adult": false,
                    "genreIds": [
                        28,
                        9648,
                        53
                    ],
                    "originalLanguage": "en",
                    "originalTitle": "Salt",
                    "overview": "Evelyn Salt genießt bei der CIA den Ruf, eine der besten Agentinnen des Geheimdienstes zu sein. Loyalität und Patriotismus stehen bei ihr an vorderster Stelle. Niemand würde ihre Integrität in Frage stellen. Bis ein Überläufer sie beschuldigt, eine russische Spionin zu sein. Salt setzt sich ab. Während sie ihre gesammelten Fähigkeiten einsetzt, um ihre Verfolger zu täuschen und abzuschütteln, müht sie sich darum, ihre Unschuld zu beweisen. Damit bewirkt sie aber nur das Gegenteil. Offenbar gibt es ein Geheimnis, von dem keiner erfahren soll.",
                    "popularity": 6.7819,
                    "releaseDate": "2010-07-21",
                    "title": "Salt",
                    "video": false,
                    "voteAverage": 6.413,
                    "voteCount": 5817,
                    "backdropPath": "/7RwAE11n2nd5pSqI9mCk4tPaEtM.jpg",
                    "posterPath": "/ywlfN9ZiRJSxVsxEWEY5U0Ixo7S.jpg"
                },
                {
                    "id": 36950,
                    "mediaType": "movie",
                    "adult": false,
                    "genreIds": [
                        18,
                        10770,
                        36
                    ],
                    "originalLanguage": "en",
                    "originalTitle": "You Dont Know Jack",
                    "overview": "Gemeinsam mit seinem Freund Neal Nicol und seiner Schwester Margo Janus hilft der Arzt Jack Kevorkian seit den 80er-Jahren über 100 seiner schwerkranken Patienten dabei, sich selbst zu töten. Kevorkian sorgt damit landesweit für großes Aufsehen und spaltet die Öffentlichkeit. Von vielen angefeindet, findet er Unterstützung durch Janet Good, die sich als Aktivistin der Hemlock Society ebenfalls für Sterbehilfe stark macht, sowie durch Anwalt Geoffrey Fieger, der ihn in diversen Gerichtsverfahren verteidigt. Um einen Präzedenzfall zu schaffen, veröffentlicht Kevorkian 1999 ein Video, in dem er einem Patienten auf dessen Wunsch erstmals eigenhändig eine tödliche Spritze verabreicht. Daraufhin wird Jack Kevorkian wegen Totschlags zu einer Freiheitsstrafe von 10 bis 25 Jahren verurteilt. 2007 wird er, inzwischen selbst unheilbar krank, frühzeitig aus der Haft entlassen.",
                    "popularity": 1.0316,
                    "releaseDate": "2010-06-27",
                    "title": "Ein Leben für den Tod",
                    "video": false,
                    "voteAverage": 7,
                    "voteCount": 424,
                    "backdropPath": "/qXgDDRtzO3nvQN29g9SbzU83OwM.jpg",
                    "posterPath": "/xl4x8aILt9v91TUOKXHIVDZwkXy.jpg"
                },
                {
                    "id": 4608,
                    "firstAirDate": "2006-10-11",
                    "genreIds": [
                        35
                    ],
                    "mediaType": "tv",
                    "name": "30 Rock",
                    "originCountry": [
                        "US"
                    ],
                    "originalLanguage": "en",
                    "originalName": "30 Rock",
                    "overview": "Exzentrische Schauspieler, ein selbstverliebter Show-Star und ein neuer Produzent, der überall mitmischt: Das ist der ganz normale Alltagswahnsinn von Drehbuchautorin Liz Lemon. Die Mittdreißigerin leitet die NBC Comedy-Sendung \"The Girlie Show\", die im Gebäude 30 Rockefeller Plaza produziert wird. Als Lemons neuer Vorgesetzter Jack Donaghy auf der Bildfläche erscheint, ist das Chaos vorprogrammiert. Donaghy, dessen ganzer Stolz die Erfindung einer neuartigen Mikrowelle ist, kommt aus der Elektroniksparte von GE und hat keine Ahnung vom Fernsehbusiness. Nicht zu stoppen in seinem Tatendrang, krempelt er kurzerhand die Comedy-Sendung um und macht zum Entsetzen von Autorin Lemon und ihrer Darstellerriege den durchgeknallten Filmschauspieler Tracy Jordan zum neuen Star der Late-Night-Show.",
                    "popularity": 54.3467,
                    "voteAverage": 7.466,
                    "voteCount": 766,
                    "backdropPath": "/cK5AbLFBY2JDoqEdVXk0697e2SV.jpg",
                    "posterPath": "/eYYQWACx7ttUzRwTNYuo6zveqpE.jpg"
                }
            ]
        },
        {
            "id": 826962,
            "mediaType": "movie",
            "adult": false,
            "genreIds": [
                28
            ],
            "originalLanguage": "en",
            "originalTitle": "Stay Frosty",
            "overview": "",
            "popularity": 0.5663,
            "releaseDate": "",
            "title": "Stay Frosty",
            "video": false,
            "voteAverage": 0,
            "voteCount": 0,
            "backdropPath": null,
            "posterPath": null
        },
        {
            "id": 1828978,
            "name": "Wayne Frosty Freeze Frost",
            "popularity": 0.154,
            "adult": false,
            "mediaType": "person",
            "profilePath": "/tcGCWSAAruIf4O7oQXXpZyD5yxK.jpg",
            "knownFor": [
                {
                    "id": 535,
                    "mediaType": "movie",
                    "adult": false,
                    "genreIds": [
                        18,
                        10749
                    ],
                    "originalLanguage": "en",
                    "originalTitle": "Flashdance",
                    "overview": "Die 18jährige Alex arbeitet tagsüber in einem Stahlwerk als Schweißerin. Abends und nachts verdient sie sich ihr Geld als Tänzerin in einem schäbigen Nachtclub. Sie möchte aufs Konservatorium, um eine klassische Ballettausbildung zu erhalten. Alex verliebt sich in ihren Chef, der hinter ihrem Rücken seine Beziehungen spielen lässt. Als sie davon erfährt, wirft sie alles hin und trennt sich von ihm. Aber sie reißt sich zusammen, nimmt den Vortanztermin wahr und überzeugt mit einer sensationellen akrobatischen Tanznummer die Prüfungskommission.",
                    "popularity": 3.5041,
                    "releaseDate": "1983-04-14",
                    "title": "Flashdance",
                    "video": false,
                    "voteAverage": 6.487,
                    "voteCount": 1570,
                    "backdropPath": "/k6BDdDhWeTlj0LVUL5eADZtR0cz.jpg",
                    "posterPath": "/d3P6wInq6toQhF0LZskiuFdlKkC.jpg"
                },
                {
                    "id": 67361,
                    "mediaType": "movie",
                    "adult": false,
                    "genreIds": [
                        99
                    ],
                    "originalLanguage": "en",
                    "originalTitle": "The Freshest Kids",
                    "overview": "",
                    "popularity": 0.167,
                    "releaseDate": "2002-10-01",
                    "title": "The Freshest Kids",
                    "video": false,
                    "voteAverage": 8.1,
                    "voteCount": 5,
                    "backdropPath": null,
                    "posterPath": "/z24m7Yr1GBUH84PGHf0fm1CapCr.jpg"
                }
            ]
        },
        {
            "id": 275438,
            "mediaType": "movie",
            "adult": false,
            "genreIds": [
                10751,
                16
            ],
            "originalLanguage": "en",
            "originalTitle": "HIT Favorites: Frosty Friends",
            "overview": "",
            "popularity": 0.137,
            "releaseDate": "2009-10-13",
            "title": "HIT Favorites: Frosty Friends",
            "video": false,
            "voteAverage": 0,
            "voteCount": 0,
            "backdropPath": null,
            "posterPath": "/yVHThOR6EizZhkLGyuw8R7D1Yb9.jpg"
        }
    ]
}
