{
    "page": 1,
    "totalPages": 3,
    "totalResults": 44,
    "results": [
        {
            "id": 605521,
            "mediaType": "movie",
            "adult": false,
            "genreIds": [
                99
            ],
            "originalLanguage": "en",
            "originalTitle": "Frosty",
            "overview": "“I need to run because I love having that connection to nature,” says ultra-runner Anna Frost, who’s been racking up competitive wins for more than a decade. After being consumed with running for years, Frost takes on a new challenge. This film follows the endurance athlete from podium to motherhood.",
            "popularity": 0.001,
            "releaseDate": "",
            "title": "Frosty",
            "video": false,
            "voteAverage": 0,
            "voteCount": 0,
            "backdropPath": "/k9TZgaLoTfdN6nrivajxNQN92jL.jpg",
            "posterPath": null
        },
        {
            "id": 1290287,
            "mediaType": "movie",
            "adult": false,
            "genreIds": [
                10749,
                35
            ],
            "originalLanguage": "en",
            "originalTitle": "Hot Frosty",
            "overview": "When a young widow's magic scarf brings a dashing snowman to life, can he help her rediscover romance, laughter and holiday cheer before he melts away?",
            "popularity": 87.462,
            "releaseDate": "2024-11-12",
            "title": "Hot Frosty",
            "video": false,
            "voteAverage": 6,
            "voteCount": 215,
            "backdropPath": "/6neVLKBU4DaWAwpWFhfCpV6yuqN.jpg",
            "posterPath": "/waW6R5WJQSxq65gwBkvnKlseU6n.jpg",
            "mediaInfo": {
                "downloadStatus": [],
                "downloadStatus4k": [],
                "id": 534,
                "mediaType": "movie",
                "tmdbId": 1290287,
                "tvdbId": null,
                "imdbId": null,
                "status": 5,
                "status4k": 1,
                "createdAt": "2024-12-24T21:13:40.000Z",
                "updatedAt": "2024-12-24T21:20:00.000Z",
                "lastSeasonChange": "2024-12-24T21:13:40.000Z",
                "mediaAddedAt": "2024-12-24T21:15:39.000Z",
                "serviceId": 0,
                "serviceId4k": null,
                "externalServiceId": 421,
                "externalServiceId4k": null,
                "externalServiceSlug": "1290287",
                "externalServiceSlug4k": null,
                "ratingKey": "10177",
                "ratingKey4k": null,
                "seasons": [],
                "plexUrl": "https://app.plex.tv/desktop#!/server/aaaa/details?key=%2Flibrary%2Fmetadata%2F10177",
                "iOSPlexUrl": "plex://preplay/?metadataKey=%2Flibrary%2Fmetadata%2F10177&server=aaaa",
                "serviceUrl": "http://192.168.0.1:7878/movie/1290287"
            }
        },
        {
            "id": 118395,
            "name": "Frosty Lawson",
            "popularity": 0.22,
            "adult": false,
            "mediaType": "person",
            "profilePath": "/1i5LzEjrqMq8d25YmwWmy7OQyuR.jpg",
            "knownFor": [
                {
                    "id": 27576,
                    "mediaType": "movie",
                    "adult": false,
                    "genreIds": [
                        28,
                        9648,
                        53
                    ],
                    "originalLanguage": "en",
                    "originalTitle": "Salt",
                    "overview": "As a CIA officer, Evelyn Salt swore an oath to duty, honor and country. Her loyalty will be tested when a Russian defector accuses her of being a Russian sleeper spy. She goes on the run, using all her skills and years of experience as a covert operative to elude capture, protect her husband, and stay one step ahead of her colleagues at the CIA. Her efforts to prove her innocence only serve to cast doubt on her motives, as the hunt to uncover the truth behind her identity continues and the question remains: \"Who is Salt?\"",
                    "popularity": 36.815,
                    "releaseDate": "2010-07-21",
                    "title": "Salt",
                    "video": false,
                    "voteAverage": 6.415,
                    "voteCount": 5455,
                    "backdropPath": "/75S1XsekIPF7c99g5cby0DeorPz.jpg",
                    "posterPath": "/ppXyhOe8UCEOrBRSYqE3SkHwrcR.jpg"
                },
                {
                    "id": 36950,
                    "mediaType": "movie",
                    "adult": false,
                    "genreIds": [
                        18,
                        10770
                    ],
                    "originalLanguage": "en",
                    "originalTitle": "You Don't Know Jack",
                    "overview": "Controversy and legal problems follow Dr. Jack Kevorkian as he advocates assisted suicide.",
                    "popularity": 15.473,
                    "releaseDate": "2010-06-27",
                    "title": "You Don't Know Jack",
                    "video": false,
                    "voteAverage": 7.058,
                    "voteCount": 387,
                    "backdropPath": "/aaSYQOoIlDAeCzsKYB47qe2l4Oe.jpg",
                    "posterPath": "/xl4x8aILt9v91TUOKXHIVDZwkXy.jpg"
                },
                {
                    "id": 4608,
                    "firstAirDate": "2006-10-11",
                    "genreIds": [
                        35
                    ],
                    "mediaType": "tv",
                    "name": "30 Rock",
                    "originCountry": [
                        "US"
                    ],
                    "originalLanguage": "en",
                    "originalName": "30 Rock",
                    "overview": "Liz Lemon, the head writer for a late-night TV variety show in New York, tries to juggle all the egos around her while chasing her own dream.",
                    "popularity": 211.586,
                    "voteAverage": 7.4,
                    "voteCount": 684,
                    "backdropPath": "/cK5AbLFBY2JDoqEdVXk0697e2SV.jpg",
                    "posterPath": "/eYYQWACx7ttUzRwTNYuo6zveqpE.jpg"
                }
            ]
        },
        {
            "id": 2317493,
            "name": "Glen Frosty Little",
            "popularity": 0.001,
            "adult": false,
            "mediaType": "person",
            "profilePath": null,
            "knownFor": [
                {
                    "id": 603658,
                    "mediaType": "movie",
                    "adult": false,
                    "genreIds": [
                        99
                    ],
                    "originalLanguage": "en",
                    "originalTitle": "Clown Face!",
                    "overview": "The movie \"Clown Face\" offers a very rare glimpse into the backstage private world of Circus Clowns. Here, you can look behind the curtain. You will see the clowns in their backstage habitat, Clown Alley, preparing for a circus performance",
                    "popularity": 0.293,
                    "releaseDate": "1971-01-01",
                    "title": "Clown Face!",
                    "video": false,
                    "voteAverage": 0,
                    "voteCount": 0,
                    "backdropPath": null,
                    "posterPath": "/iYWav28oPGPm36Sa9PTrSWckdG2.jpg"
                }
            ]
        },
        {
            "id": 120603,
            "name": "Erin Frosty",
            "popularity": 0.001,
            "adult": false,
            "mediaType": "person",
            "profilePath": null,
            "knownFor": [
                {
                    "id": 38509,
                    "mediaType": "movie",
                    "adult": false,
                    "genreIds": [
                        35,
                        18
                    ],
                    "originalLanguage": "en",
                    "originalTitle": "Polish Wedding",
                    "overview": "The film centers on a big Polish family. Jadzia is the mother and the ruler of the Pzoniak family (she has five children). Though she's happily married to Bolek, she is also having a long-time affair with Roman. Her young daughter Hala is having an affair with neighbour cop Russell and becomes pregnant by him. Russell is pressed hard to marry Hala.",
                    "popularity": 5.908,
                    "releaseDate": "1998-01-16",
                    "title": "Polish Wedding",
                    "video": false,
                    "voteAverage": 5.2,
                    "voteCount": 40,
                    "backdropPath": "/jw3090ZOcyegQCeHWdFkDsPIaRh.jpg",
                    "posterPath": "/36De1BxBBzXyJ1eYVQlIoTUIwQm.jpg"
                }
            ]
        },
        {
            "id": 1828978,
            "name": "Wayne 'Frosty Freeze' Frost",
            "popularity": 0.611,
            "adult": false,
            "mediaType": "person",
            "profilePath": "/tcGCWSAAruIf4O7oQXXpZyD5yxK.jpg",
            "knownFor": [
                {
                    "id": 535,
                    "mediaType": "movie",
                    "adult": false,
                    "genreIds": [
                        18,
                        10749
                    ],
                    "originalLanguage": "en",
                    "originalTitle": "Flashdance",
                    "overview": "Alex Owens, a young woman juggling between two odd jobs, aspires to become a successful ballet dancer. Nick, who is her boss and lover, supports and encourages her to fulfil her dream.",
                    "popularity": 22.254,
                    "releaseDate": "1983-04-14",
                    "title": "Flashdance",
                    "video": false,
                    "voteAverage": 6.496,
                    "voteCount": 1466,
                    "backdropPath": "/4taRyneJlNDhuEkfX5QU6CG6Vbh.jpg",
                    "posterPath": "/ziiy6ORt8BlxWFXskBChBMInvDA.jpg"
                },
                {
                    "id": 67361,
                    "mediaType": "movie",
                    "adult": false,
                    "genreIds": [
                        99
                    ],
                    "originalLanguage": "en",
                    "originalTitle": "The Freshest Kids",
                    "overview": "From the Boogie Down Bronx and beyond, the history of the b-boy.",
                    "popularity": 0.505,
                    "releaseDate": "2002-10-01",
                    "title": "The Freshest Kids",
                    "video": false,
                    "voteAverage": 8.1,
                    "voteCount": 5,
                    "backdropPath": null,
                    "posterPath": "/z24m7Yr1GBUH84PGHf0fm1CapCr.jpg"
                }
            ]
        },
        {
            "id": 1414554,
            "name": "Craig Frosty Silva",
            "popularity": 0.43,
            "adult": false,
            "mediaType": "person",
            "profilePath": null,
            "knownFor": [
                {
                    "id": 18785,
                    "mediaType": "movie",
                    "adult": false,
                    "genreIds": [
                        35
                    ],
                    "originalLanguage": "en",
                    "originalTitle": "The Hangover",
                    "overview": "When three friends finally come to after a raucous night of bachelor-party revelry, they find a baby in the closet and a tiger in the bathroom. But they can't seem to locate their best friend, Doug – who's supposed to be tying the knot. Launching a frantic search for Doug, the trio perseveres through a nasty hangover to try to make it to the church on time.",
                    "popularity": 90.836,
                    "releaseDate": "2009-06-02",
                    "title": "The Hangover",
                    "video": false,
                    "voteAverage": 7.322,
                    "voteCount": 16877,
                    "backdropPath": "/ubiu5Y7nP187ZFWUzjPj7Hgw6Go.jpg",
                    "posterPath": "/wTt2BoyAGhr0M00eR1ewVZyQoUq.jpg"
                },
                {
                    "id": 119450,
                    "mediaType": "movie",
                    "adult": false,
                    "genreIds": [
                        878,
                        28,
                        18,
                        53
                    ],
                    "originalLanguage": "en",
                    "originalTitle": "Dawn of the Planet of the Apes",
                    "overview": "A group of scientists in San Francisco struggle to stay alive in the aftermath of a plague that is wiping out humanity, while Caesar tries to maintain dominance over his community of intelligent apes.",
                    "popularity": 61.855,
                    "releaseDate": "2014-07-08",
                    "title": "Dawn of the Planet of the Apes",
                    "video": false,
                    "voteAverage": 7.329,
                    "voteCount": 11427,
                    "backdropPath": "/zlU8BIkgY7E6SMfD3USTWC6bchL.jpg",
                    "posterPath": "/kScdQEwS9jPEdnO23XjGAtaoRcT.jpg"
                },
                {
                    "id": 58574,
                    "mediaType": "movie",
                    "adult": false,
                    "genreIds": [
                        12,
                        28,
                        80,
                        9648
                    ],
                    "originalLanguage": "en",
                    "originalTitle": "Sherlock Holmes: A Game of Shadows",
                    "overview": "There is a new criminal mastermind at large (Professor Moriarty) and not only is he Holmes’ intellectual equal, but his capacity for evil and lack of conscience may give him an advantage over the  detective.",
                    "popularity": 34.481,
                    "releaseDate": "2011-11-22",
                    "title": "Sherlock Holmes: A Game of Shadows",
                    "video": false,
                    "voteAverage": 7.14,
                    "voteCount": 10294,
                    "backdropPath": "/nVMalJRUsOeGP5xPx9ULmirZ4cJ.jpg",
                    "posterPath": "/y1MYZkwhZK6L0Jy4YMuPktzDOfn.jpg"
                }
            ]
        },
        {
            "id": 28042,
            "mediaType": "movie",
            "adult": false,
            "genreIds": [
                16,
                10751,
                10770
            ],
            "originalLanguage": "en",
            "originalTitle": "Frosty Returns",
            "overview": "Mr. Twitchell, a greedy old businessman, has invented Summer Wheeze: a spray that instantly removes snow and slush! Now Holly has to keep Frosty from melting, and convince everybody that snow's actually a good thing.",
            "popularity": 7.677,
            "releaseDate": "1992-12-01",
            "title": "Frosty Returns",
            "video": false,
            "voteAverage": 5.6,
            "voteCount": 100,
            "backdropPath": "/tQBVmuHhIycRg1BJaEZrBp9M9gM.jpg",
            "posterPath": "/t22OhZnczuoT68k5KNPCM0C9zUT.jpg"
        },
        {
            "id": 1300131,
            "name": "Frosty Royce",
            "popularity": 0.355,
            "adult": false,
            "mediaType": "person",
            "profilePath": null,
            "knownFor": [
                {
                    "id": 967,
                    "mediaType": "movie",
                    "adult": false,
                    "genreIds": [
                        36,
                        10752,
                        18,
                        12
                    ],
                    "originalLanguage": "en",
                    "originalTitle": "Spartacus",
                    "overview": "The rebellious Thracian Spartacus, born and raised a slave, is sold to Gladiator trainer Batiatus. After weeks of being trained to kill for the arena, Spartacus turns on his owners and leads the other slaves in rebellion. As the rebels move from town to town, their numbers swell as escaped slaves join their ranks. Under the leadership of Spartacus, they make their way to southern Italy, where they will cross the sea and return to their homes.",
                    "popularity": 37.881,
                    "releaseDate": "1960-10-13",
                    "title": "Spartacus",
                    "video": false,
                    "voteAverage": 7.546,
                    "voteCount": 2139,
                    "backdropPath": "/aheSIG4h3JNxWeDvdb1NxKzgjaM.jpg",
                    "posterPath": "/xLPpQlFWE12cbqNJQ5Vf4eJU8ij.jpg"
                },
                {
                    "id": 18264,
                    "mediaType": "movie",
                    "adult": false,
                    "genreIds": [
                        18,
                        37
                    ],
                    "originalLanguage": "en",
                    "originalTitle": "The Man from Laramie",
                    "overview": "Will Lockhart arrives in Coronado, an isolated town in New Mexico, in search of someone who sells rifles to the Apache tribe, finding himself unwillingly drawn into the convoluted life of a local ranching family whose members seem to have a lot to hide.",
                    "popularity": 13.317,
                    "releaseDate": "1955-08-19",
                    "title": "The Man from Laramie",
                    "video": false,
                    "voteAverage": 7.2,
                    "voteCount": 230,
                    "backdropPath": "/f2AknGbvyhFdeZUDcbq3ZqguQZT.jpg",
                    "posterPath": "/aKMZoZpN0FobSIDAlj5Ixv0kDeT.jpg"
                },
                {
                    "id": 28484,
                    "mediaType": "movie",
                    "adult": false,
                    "genreIds": [
                        37,
                        80,
                        10749
                    ],
                    "originalLanguage": "en",
                    "originalTitle": "Colorado Territory",
                    "overview": "After escaping from jail, outlaw Wes McQueen is convinced by his old partner in crime to do one last heist.",
                    "popularity": 5.99,
                    "releaseDate": "1949-06-11",
                    "title": "Colorado Territory",
                    "video": false,
                    "voteAverage": 6.8,
                    "voteCount": 62,
                    "backdropPath": "/geizp94zUS43Q0h7kO0ZlUQI3Mn.jpg",
                    "posterPath": "/sliBPULxtTEit14lFJYLSeHO679.jpg"
                }
            ]
        },
        {
            "id": 26539,
            "mediaType": "movie",
            "adult": false,
            "genreIds": [
                16,
                10751,
                10770
            ],
            "originalLanguage": "en",
            "originalTitle": "Frosty's Winter Wonderland",
            "overview": "Years have passed since Frosty left for the North Pole, but his promise is kept when he hears news of the first snowfall of the season, and decides to return.",
            "popularity": 10.095,
            "releaseDate": "1976-12-02",
            "title": "Frosty's Winter Wonderland",
            "video": false,
            "voteAverage": 6.7,
            "voteCount": 75,
            "backdropPath": "/eFL6glfGf0GPGRQ712f1rPNniDV.jpg",
            "posterPath": "/o915rkZ0wwQjrk0UAEQkEkmt1E1.jpg"
        },
        {
            "id": 13675,
            "mediaType": "movie",
            "adult": false,
            "genreIds": [
                10751,
                16,
                10770
            ],
            "originalLanguage": "en",
            "originalTitle": "Frosty the Snowman",
            "overview": "A discarded silk top-hat becomes the focus of a struggle between a washed-up stage magician and a group of schoolchildren, after it magically brings a snowman to life. Realizing that newly-living Frosty will melt in spring unless he takes refuge in a colder climate, Frosty and Karen, a young girl who he befriends, stow away on a freight train headed for the north pole. Little do they know that the magician is following them, and he wants his hat back!",
            "popularity": 20.297,
            "releaseDate": "1969-12-07",
            "title": "Frosty the Snowman",
            "video": false,
            "voteAverage": 6.945,
            "voteCount": 343,
            "backdropPath": "/69HEmEIgFCo6Te8ShHcFB1ERPeF.jpg",
            "posterPath": "/gw7ie4W3iW8nefnZ4kuw8dgYNM2.jpg"
        },
        {
            "id": 40246,
            "mediaType": "movie",
            "adult": false,
            "genreIds": [
                16,
                14,
                10751,
                10770
            ],
            "originalLanguage": "en",
            "originalTitle": "Rudolph and Frosty's Christmas in July",
            "overview": "Winterbolt is trying to make the North Pole his evil wonderland, and it is up to Frosty the Snowman, Rudolph the Red-Nosed Reindeer and others to stop him.",
            "popularity": 6.946,
            "releaseDate": "1979-07-01",
            "title": "Rudolph and Frosty's Christmas in July",
            "video": false,
            "voteAverage": 6.5,
            "voteCount": 69,
            "backdropPath": "/9bBUH5OfA19jri8YOpXTty1dB0v.jpg",
            "posterPath": "/3BfpQ4trGB6aEIIirL7SikStHRU.jpg"
        },
        {
            "id": 1393660,
            "mediaType": "movie",
            "adult": false,
            "genreIds": [],
            "originalLanguage": "en",
            "originalTitle": "Hot Frosty 2024 - Afdah",
            "overview": "Hot Frosty 2024 is a pleasant surprise among holiday romances. The film goes beyond what you would expect from a film in this genre, turning a potentially silly premise into a complex look at grief, love, and magical second chances. Lacey Chabert and Dustin Milligan's captivating chemistry, clever script, and true emotional depth turn a potentially forgotten idea into a memorable one. The film skillfully combines funny and touching moments to create a unique story that shows how complicated relationships can be. Unlike other holiday movies, it combines magic with a moving true story.",
            "popularity": 0.537,
            "releaseDate": "",
            "title": "Hot Frosty 2024 - Comedy, Romance, Fantasy",
            "video": false,
            "voteAverage": 0,
            "voteCount": 0,
            "backdropPath": null,
            "posterPath": null
        },
        {
            "id": 5070012,
            "name": "Frosty/Misty",
            "popularity": 0.001,
            "adult": false,
            "mediaType": "person",
            "profilePath": null,
            "knownFor": [
                {
                    "id": 1390475,
                    "mediaType": "movie",
                    "adult": false,
                    "genreIds": [
                        99
                    ],
                    "originalLanguage": "en",
                    "originalTitle": "All the Little Things",
                    "overview": "An accomplished molecular biologist moves out of the lab in a quest to make an encyclopedia documenting all the fruit fly species in North America.",
                    "popularity": 2.353,
                    "releaseDate": "2024-12-06",
                    "title": "All the Little Things",
                    "video": false,
                    "voteAverage": 0,
                    "voteCount": 0,
                    "backdropPath": null,
                    "posterPath": "/s6oSKU12XO4u83JhEqrcOqaUFzw.jpg"
                }
            ]
        },
        {
            "id": 1357698,
            "mediaType": "movie",
            "adult": false,
            "genreIds": [],
            "originalLanguage": "en",
            "originalTitle": "The Rudolph, Frosty & Friends Sing Along",
            "overview": "Ten Musical Yuletide treasures featuring the voices of Fred Astaire, Jimmy Durante and Burl Ives. Create A tuneful new family tradition with this festive, fun-to-follow sing along!",
            "popularity": 1.55,
            "releaseDate": "2024-11-08",
            "title": "The Rudolph, Frosty & Friends Sing Along",
            "video": true,
            "voteAverage": 0,
            "voteCount": 0,
            "backdropPath": null,
            "posterPath": "/6TPx3OOgSlhKIwtVEiaedJ7UmBa.jpg"
        },
        {
            "id": 953871,
            "mediaType": "movie",
            "adult": false,
            "genreIds": [
                99
            ],
            "originalLanguage": "ru",
            "originalTitle": "А над Тунгуской морозный стелется туман...",
            "overview": "On the shore of the Podkamennaya Tunguska, in harsh northern conditions, the Kto people live, the keeper of a special way of life, traditions and rituals.",
            "popularity": 0.005,
            "releaseDate": "2015-03-09",
            "title": "And Over Tunguska Frosty Fog Spreads",
            "video": false,
            "voteAverage": 0,
            "voteCount": 0,
            "backdropPath": null,
            "posterPath": null
        },
        {
            "id": 845524,
            "mediaType": "movie",
            "adult": false,
            "genreIds": [],
            "originalLanguage": "lv",
            "originalTitle": "Sarmītes",
            "overview": "In the mid – 1960’s, Latvia was a part of the Soviet Union. People lived identical lives, listened to the same radio stations. Children wore the same boots and ate the same porridge every morning. Only their dreams and desires for something different set them apart from each other. For little Dace this is a moment, where stand still of childhood’s happiness turns into time for growing up.  \"A fullfilled expression of Beauty in the passage of Life.\" (Dmitry Rancev, \"The Independent\", Latvia)  \"Competent and Spartan…\" (Jan Ingman, catalogue of \"Stockholm IFF\")",
            "popularity": 0.426,
            "releaseDate": "2001-10-10",
            "title": "Frosty Flowers",
            "video": false,
            "voteAverage": 0,
            "voteCount": 0,
            "backdropPath": null,
            "posterPath": null
        },
        {
            "id": 433229,
            "mediaType": "movie",
            "adult": false,
            "genreIds": [],
            "originalLanguage": "en",
            "originalTitle": "Jadeh-haye Sard",
            "overview": "Moosavi, a country schoolteacher, must undertake an arduous journey to fetch medicine for his village's sick. Accompanied by his student and a villager, he travels through a blizzard and is pursued by a pack of hungry wolves.",
            "popularity": 0.001,
            "releaseDate": "1985-01-01",
            "title": "Frosty Roads",
            "video": false,
            "voteAverage": 0,
            "voteCount": 0,
            "backdropPath": null,
            "posterPath": "/wm60uU0s6UvyaE7d2zRjWvJXh5z.jpg"
        },
        {
            "id": 1002270,
            "mediaType": "movie",
            "adult": false,
            "genreIds": [
                28
            ],
            "originalLanguage": "zh",
            "originalTitle": "月落烏啼霜滿天",
            "overview": "Loosely based on Maxim Gorky's The Lower Depths",
            "popularity": 0.746,
            "releaseDate": "1957-07-04",
            "title": "The Frosty Night",
            "video": false,
            "voteAverage": 0,
            "voteCount": 0,
            "backdropPath": null,
            "posterPath": "/d3daC6WjqcPIXYDIWmGCQXe6M94.jpg"
        },
        {
            "id": 441986,
            "mediaType": "movie",
            "adult": false,
            "genreIds": [
                16
            ],
            "originalLanguage": "ru",
            "originalTitle": "Морозный узор",
            "overview": "How Morozik decorated a rainy day with sparkling snow.",
            "popularity": 0.001,
            "releaseDate": "1974-02-16",
            "title": "Frosty Pattern",
            "video": false,
            "voteAverage": 0,
            "voteCount": 0,
            "backdropPath": null,
            "posterPath": "/xBVamm4xxgKqfQHtVoLTpd3tjpz.jpg"
        }
    ]
}
